{
  "global": {
    "from": "Kunal Mehta <kunal.mehta@sjsu.edu>"
  },
  "sb1241": {
    "template": "sb1241",
    "schedule": "monthly",
    "subject": "Police Public Records Request ({period})",
    "targets": [
      {
        "to": "publicrecordsrequests@sjsu.edu",
        "params": {
          "department": "San Jose State University Police Department"
        }
      },
      {
        "to": "risk@csuchico.edu",
        "params": {
          "department": "CSU Chico's University Police Department"
        }
      },
      {
        "to": "dfranco@sdsu.edu",
        "params": {
          "department": "San Diego State University Police Department"
        }
      },
      {
        "to": "PRA@calpoly.edu",
        "params": {
          "department": "Cal Poly's University Police Department"
        }
      },
      {
        "to": "estherg@csufresno.edu",
        "params": {
          "department": "Fresno State University Police Department"
        }
      },
      {
        "to": "publicrecordsrequest@humboldt.edu",
        "params": {
          "department": "Humboldt State University Police Department"
        }
      },
      {
        "to": "albertv@cpp.edu",
        "params": {
          "department": "Cal Poly Pomona University Police Department"
        }
      },
      {
        "to": "rmehs@calstatela.edu",
        "params": {
          "department": "Cal State LA University Police Department and Department of Public Safety"
        }
      },
      {
        "to": "PRAREQUEST@csus.edu",
        "params": {
          "department": "Sacramento State University Police Department"
        }
      },
      {
        "to": "publicrecords@csulb.edu",
        "params": {
          "department": "CSU Long Beach University Police"
        }
      },
      {
        "to": "publicrecord@fullerton.edu",
        "params": {
          "department": "CSU Fullerton University Police"
        }
      },
      {
        "to": "compliance@csustan.edu",
        "params": {
          "department": "Stanislaus State University Police Department"
        }
      },
      {
        "to": "carmen.rusca@csueastbay.edu",
        "params": {
          "department": "Cal State East Bay University Police Department"
        }
      },
      {
        "to": "vpadmin@csun.edu",
        "params": {
          "department": "CSU Northridge Police Department"
        }
      },
      {
        "to": "ucpa@csudh.edu",
        "params": {
          "department": "CSU Dominguez Hills University Police Department"
        }
      },
      {
        "to": "police@sonoma.edu",
        "params": {
          "department": "Sonoma State University Police Department"
        }
      },
      {
        "to": "public.records@csusb.edu",
        "params": {
          "department": "CSU San Bernardino Police Department"
        }
      },
      {
        "to": "mwilliamson@csub.edu",
        "params": {
          "department": "CSU Bakersfield University Police Department"
        }
      },
      {
        "to": "cbebee@csusm.edu",
        "params": {
          "department": "CSU San Marcos University Police Department"
        }
      },
      {
        "to": "alee@csumb.edu",
        "params": {
          "department": "CSU Monterey Bay University Police Department"
        }
      },
      {
        "to": "police@csuci.edu",
        "params": {
          "department": "CSU Channel Islands Public Safety Department"
        }
      },
      {
        "to": "pra@berkeley.edu",
        "params": {
          "department": "UC Berkeley Police Department"
        }
      },
      {
        "to": ["mlblouin@ucdavis.edu", "ahfell@ucdavis.edu"],
        "params": {
          "department": "UC Davis Police Department"
        }
      },
      {
        "to": "pra@uci.edu",
        "params": {
          "department": "UC Irvine Public Safety"
        }
      },
      {
        "to": "UCLARecordsManagement@finance.ucla.edu",
        "params": {
          "department": "UCLA Police Department"
        }
      },
      {
        "to": "publicrecords@ucmerced.edu",
        "params": {
          "department": "UC Merced Public Safety"
        }
      },
      {
        "to": "publicrecords@ucr.edu",
        "params": {
          "department": "UC Riverside Police Department"
        }
      },
      {
        "to": "cprarequests@ucsd.edu",
        "params": {
          "department": "UCSD Police Department"
        }
      },
      {
        "to": "bgee@chanoff.ucsf.edu",
        "params": {
          "department": "UCSF Police Department"
        }
      },
      {
        "to": "pra@ehs.ucsb.edu",
        "params": {
          "department": "UCSB Police Department"
        }
      },
      {
        "to": "pra@ucsc.edu",
        "params": {
          "department": "UCSC Police Department"
        }
      }
    ]
  }
}
